<?xml version="1.0" encoding="UTF-8" standalone="no"?>
<!-- Created with Inkscape (http://www.inkscape.org/) -->

<svg
   xmlns:dc="http://purl.org/dc/elements/1.1/"
   xmlns:cc="http://creativecommons.org/ns#"
   xmlns:rdf="http://www.w3.org/1999/02/22-rdf-syntax-ns#"
   xmlns:svg="http://www.w3.org/2000/svg"
   xmlns="http://www.w3.org/2000/svg"
   xmlns:sodipodi="http://sodipodi.sourceforge.net/DTD/sodipodi-0.dtd"
   xmlns:inkscape="http://www.inkscape.org/namespaces/inkscape"
   width="921.46997"
   height="782.54999"
   id="svg2"
   version="1.1"
   inkscape:version="0.48.4 r9939"
   sodipodi:docname="code.svg">
  <defs
     id="defs4" />
  <sodipodi:namedview
     id="base"
     pagecolor="#ffffff"
     bordercolor="#666666"
     borderopacity="1.0"
     inkscape:pageopacity="0.0"
     inkscape:pageshadow="2"
     inkscape:zoom="0.7"
     inkscape:cx="582.67922"
     inkscape:cy="274.0294"
     inkscape:document-units="px"
     inkscape:current-layer="layer1"
     showgrid="false"
     inkscape:window-width="1416"
     inkscape:window-height="1147"
     inkscape:window-x="197"
     inkscape:window-y="0"
     inkscape:window-maximized="0"
     showguides="true"
     inkscape:guide-bbox="true"
     fit-margin-top="50"
     fit-margin-left="50"
     fit-margin-right="50"
     fit-margin-bottom="50" />
  <metadata
     id="metadata7">
    <rdf:RDF>
      <cc:Work
         rdf:about="">
        <dc:format>image/svg+xml</dc:format>
        <dc:type
           rdf:resource="http://purl.org/dc/dcmitype/StillImage" />
        <dc:title />
      </cc:Work>
    </rdf:RDF>
  </metadata>
  <g
     inkscape:label="Layer 1"
     inkscape:groupmode="layer"
     id="layer1"
     transform="translate(-5.5622177,-244.34803)">
    <flowRoot
       xml:space="preserve"
       id="flowRoot3003"
       style="font-size:40px;font-style:normal;font-variant:normal;font-weight:normal;font-stretch:normal;text-align:center;line-height:125%;letter-spacing:0px;word-spacing:0px;text-anchor:middle;fill:#000000;fill-opacity:1;stroke:none;font-family:DejaVu Sans;-inkscape-font-specification:DejaVu Sans"><flowRegion
         id="flowRegion3005"><rect
           id="rect3007"
           width="382.85715"
           height="240"
           x="-268.57144"
           y="452.36218" /></flowRegion><flowPara
         id="flowPara3009" /></flowRoot>    <text
       xml:space="preserve"
       style="font-size:40px;font-style:normal;font-variant:normal;font-weight:normal;font-stretch:normal;text-align:center;line-height:125%;letter-spacing:0px;word-spacing:0px;text-anchor:middle;fill:#000000;fill-opacity:1;stroke:none;font-family:DejaVu Sans;-inkscape-font-specification:DejaVu Sans"
       x="297.995"
       y="833.15906"
       id="text3213"
       sodipodi:linespacing="125%"><tspan
         sodipodi:role="line"
         id="tspan3215"
         x="297.995"
         y="833.15906" /></text>
    <text
       xml:space="preserve"
       style="font-size:40px;font-style:normal;font-variant:normal;font-weight:normal;font-stretch:normal;text-align:center;line-height:125%;letter-spacing:0px;word-spacing:0px;text-anchor:middle;fill:#000000;fill-opacity:1;stroke:none;font-family:DejaVu Sans;-inkscape-font-specification:DejaVu Sans"
       x="130"
       y="232.36218"
       id="text3059"
       sodipodi:linespacing="125%"><tspan
         sodipodi:role="line"
         id="tspan3062"
         x="130"
         y="232.36218" /></text>
    <flowRoot
       xml:space="preserve"
       id="flowRoot3040"
       style="font-size:40px;font-style:normal;font-variant:normal;font-weight:normal;font-stretch:normal;text-align:center;line-height:125%;letter-spacing:0px;word-spacing:0px;text-anchor:middle;fill:#000000;fill-opacity:1;stroke:none;font-family:DejaVu Sans;-inkscape-font-specification:DejaVu Sans"><flowRegion
         id="flowRegion3042"><rect
           id="rect3044"
           width="247.14285"
           height="425.71429"
           x="708.57141"
           y="408.07648" /></flowRegion><flowPara
         id="flowPara3046" /></flowRoot>    <text
       xml:space="preserve"
       style="font-size:40px;font-style:normal;font-variant:normal;font-weight:normal;font-stretch:normal;text-align:center;line-height:125%;letter-spacing:0px;word-spacing:0px;text-anchor:middle;fill:#000000;fill-opacity:1;stroke:none;font-family:DejaVu Sans;-inkscape-font-specification:DejaVu Sans"
       x="167.14285"
       y="350.93362"
       id="text3060"
       sodipodi:linespacing="125%"><tspan
         sodipodi:role="line"
         id="tspan3066"
         x="167.14285"
         y="350.93362" /></text>
    <flowRoot
       xml:space="preserve"
       id="flowRoot3106"
       style="font-size:40px;font-style:normal;font-variant:normal;font-weight:normal;font-stretch:normal;text-align:center;line-height:125%;letter-spacing:0px;word-spacing:0px;text-anchor:middle;fill:#000000;fill-opacity:1;stroke:none;font-family:DejaVu Sans;-inkscape-font-specification:DejaVu Sans"><flowRegion
         id="flowRegion3108"><rect
           id="rect3110"
           width="78.571426"
           height="87.14286"
           x="432.85715"
           y="596.64789" /></flowRegion><flowPara
         id="flowPara3112" /></flowRoot>    <flowRoot
       xml:space="preserve"
       id="flowRoot3097"
       style="font-size:40px;font-style:normal;font-variant:normal;font-weight:normal;font-stretch:normal;text-align:center;line-height:125%;letter-spacing:0px;word-spacing:0px;text-anchor:middle;fill:#000000;fill-opacity:1;stroke:none;font-family:DejaVu Sans;-inkscape-font-specification:DejaVu Sans"><flowRegion
         id="flowRegion3099"><rect
           id="rect3101"
           width="45.714287"
           height="674.28571"
           x="375.71429"
           y="141.41183" /></flowRegion><flowPara
         id="flowPara3103" /></flowRoot>    <flowRoot
       xml:space="preserve"
       id="flowRoot3105"
       style="font-size:40px;font-style:normal;font-variant:normal;font-weight:normal;font-stretch:normal;text-align:center;line-height:125%;letter-spacing:0px;word-spacing:0px;text-anchor:middle;fill:#000000;fill-opacity:1;stroke:none;font-family:DejaVu Sans;-inkscape-font-specification:DejaVu Sans"><flowRegion
         id="flowRegion3107"><rect
           id="rect3109"
           width="200"
           height="694.28571"
           x="352.85715"
           y="174.26897" /></flowRegion><flowPara
         id="flowPara3111" /></flowRoot>    <flowRoot
       xml:space="preserve"
       id="flowRoot3113"
       style="font-size:40px;font-style:normal;font-variant:normal;font-weight:normal;font-stretch:normal;text-align:center;line-height:125%;letter-spacing:0px;word-spacing:0px;text-anchor:middle;fill:#000000;fill-opacity:1;stroke:none;font-family:DejaVu Sans;-inkscape-font-specification:DejaVu Sans"><flowRegion
         id="flowRegion3115"><rect
           id="rect3117"
           width="1227.1428"
           height="974.28571"
           x="-195.71428"
           y="-162.87389" /></flowRegion><flowPara
         id="flowPara3119" /></flowRoot>    <flowRoot
       xml:space="preserve"
       id="flowRoot3121"
       style="font-size:40px;font-style:normal;font-variant:normal;font-weight:normal;font-stretch:normal;text-align:center;line-height:125%;letter-spacing:0px;word-spacing:0px;text-anchor:middle;fill:#000000;fill-opacity:1;stroke:none;font-family:DejaVu Sans;-inkscape-font-specification:DejaVu Sans"
       transform="translate(5.5622177,388.34478)"><flowRegion
         id="flowRegion3123"><rect
           id="rect3125"
           width="51.42857"
           height="74.285713"
           x="-270"
           y="-208.58817" /></flowRegion><flowPara
         id="flowPara3127"></flowPara></flowRoot>    <flowRoot
       xml:space="preserve"
       id="flowRoot3129"
       style="font-size:40px;font-style:normal;font-variant:normal;font-weight:normal;font-stretch:normal;text-align:center;line-height:125%;letter-spacing:0px;word-spacing:0px;text-anchor:middle;fill:#000000;fill-opacity:1;stroke:none;font-family:DejaVu Sans;-inkscape-font-specification:DejaVu Sans"
       transform="translate(5.5622177,388.34478)"><flowRegion
         id="flowRegion3131"><rect
           id="rect3133"
           width="1222.8572"
           height="901.42859"
           x="-108.57143"
           y="-58.588169" /></flowRegion><flowPara
         id="flowPara3135"></flowPara></flowRoot>    <text
       xml:space="preserve"
       style="font-size:40px;font-style:normal;font-variant:normal;font-weight:normal;font-stretch:normal;text-align:start;line-height:125%;letter-spacing:0px;word-spacing:0px;writing-mode:lr-tb;text-anchor:start;fill:#000000;fill-opacity:1;stroke:none;font-family:Vesper LibreP28;-inkscape-font-specification:Vesper LibreP28"
       x="41.392544"
       y="228.0666"
       id="text2985-9"
       sodipodi:linespacing="125%"><tspan
         sodipodi:role="line"
         id="tspan2987-7"
         x="41.392544"
         y="228.0666" /><tspan
         sodipodi:role="line"
         x="41.392544"
         y="278.06659"
         id="tspan2989-7" /><tspan
         sodipodi:role="line"
         x="41.392544"
         y="324.37845"
         id="tspan2991-6"><tspan
           id="tspan3069-2"
           style="fill:#0000ff;font-family:Verics Regular 22;-inkscape-font-specification:Verics Regular 22"> $pv</tspan><tspan
           style="font-family:Verics Regular 22;-inkscape-font-specification:Verics Regular 22"
           id="tspan3034-1"> 𝕍 getX() </tspan><tspan
           style="fill:#0000ff;font-family:Verics Regular 22;-inkscape-font-specification:Verics Regular 22"
           id="tspan3045-7"> {</tspan></tspan><tspan
         sodipodi:role="line"
         x="41.392544"
         y="374.37845"
         id="tspan2993-4"
         style="font-family:Verics Regular 22;-inkscape-font-specification:Verics Regular 22">     𝔹<tspan
   style="fill:#0000ff;font-family:Verics Regular 22;-inkscape-font-specification:Verics Regular 22"
   id="tspan3059-8">~ </tspan><tspan
   style="font-size:40px;font-style:normal;font-variant:normal;font-weight:normal;font-stretch:normal;font-family:Verics Regular 22;-inkscape-font-specification:Verics Regular 22"
   id="tspan3030-6">enabled :</tspan>= ⊤<tspan
   style="fill:#0000ff;font-family:Verics Regular 22;-inkscape-font-specification:Verics Regular 22"
   id="tspan3061-0">; </tspan></tspan><tspan
         sodipodi:role="line"
         x="41.392544"
         y="424.37845"
         id="tspan2995-3"><tspan
           style="font-style:normal;font-variant:normal;font-weight:normal;font-stretch:normal;fill:#0000ff;font-family:Verics Regular 22;-inkscape-font-specification:Verics Regular 22"
           id="tspan3035-3">     for </tspan><tspan
           id="tspan3087-4"
           style="font-family:Verics Regular 22;-inkscape-font-specification:Verics Regular 22">ℤ</tspan><tspan
           style="fill:#0000ff;font-family:Verics Regular 22;-inkscape-font-specification:Verics Regular 22"
           id="tspan3211-2">~ </tspan><tspan
           style="font-size:40px;font-style:italic;font-variant:normal;font-weight:500;font-stretch:normal;font-family:Verics Italic 6;-inkscape-font-specification:Verics Italic 6 Medium Italic"
           id="tspan3225-6">i </tspan><tspan
           id="tspan3073-5"
           style="font-family:Verics Regular 22;-inkscape-font-specification:Verics Regular 22">:= 0</tspan><tspan
           style="fill:#0000ff;font-family:Verics Regular 22;-inkscape-font-specification:Verics Regular 22"
           id="tspan3065-0">; </tspan><tspan
           style="font-size:40px;font-style:italic;font-variant:normal;font-weight:bold;font-stretch:normal;font-family:Verics Italic 6;-inkscape-font-specification:Verics Italic 6 Bold Italic"
           id="tspan3054-2">i </tspan><tspan
           id="tspan3067-2"
           style="font-style:italic;font-variant:normal;font-weight:bold;font-stretch:normal;font-family:Verics Regular 22;-inkscape-font-specification:Verics Regular 22 Bold Italic"><tspan
   style="font-style:normal;font-weight:normal;-inkscape-font-specification:'Verics Regular 22,'"
   id="tspan3090-2">≤</tspan><tspan
   style="font-style:normal;-inkscape-font-specification:'Verics Regular 22,'"
   id="tspan3083-3"> 10</tspan>·</tspan><tspan
           id="tspan3091-4"
           style="font-family:Verics Italic 6;-inkscape-font-specification:Verics Italic 6">j</tspan><tspan
           style="fill:#0000ff;font-family:Verics Regular 22;-inkscape-font-specification:Verics Regular 22"
           id="tspan3063-4">;</tspan><tspan
           style="font-family:Verics Regular 22;-inkscape-font-specification:Verics Regular 22"
           id="tspan3046-8"> ++</tspan><tspan
           style="font-size:40px;font-style:italic;font-variant:normal;font-weight:bold;font-stretch:normal;font-family:Verics Italic 6;-inkscape-font-specification:Verics Italic 6 Bold Italic"
           id="tspan3056-0">i </tspan><tspan
           style="fill:#0000ff;font-family:Verics Regular 22;-inkscape-font-specification:Verics Regular 22"
           id="tspan3047-5">{   </tspan></tspan><tspan
         sodipodi:role="line"
         x="41.392544"
         y="474.37845"
         id="tspan2997-0" /><tspan
         sodipodi:role="line"
         x="41.392544"
         y="524.37848"
         id="tspan3071-0" /><tspan
         sodipodi:role="line"
         x="41.392544"
         y="574.37848"
         id="tspan2999-1"
         style="fill:#0000ff;font-family:Verics Regular 22;-inkscape-font-specification:Verics Regular 22">         if <tspan
   style="fill:#000000"
   id="tspan3079-8"><tspan
   style="font-style:italic;font-variant:normal;font-weight:bold;font-stretch:normal;font-family:Verics Italic 6;-inkscape-font-specification:Verics Italic 6 Bold Italic"
   id="tspan3085-9">i</tspan> &gt; 0 ∨ ❨<tspan
   style="font-style:normal;font-variant:normal;font-weight:normal;font-stretch:normal;font-family:Verics Regular 22;-inkscape-font-specification:'Verics Regular 22,'"
   id="tspan3057-9">enabled ∨ (.filled ∧ .ready)❩<tspan
   style="fill:#0000ff"
   id="tspan3075-7"> {</tspan></tspan></tspan></tspan><tspan
         sodipodi:role="line"
         x="41.392544"
         y="624.37848"
         style="fill:#0000ff;font-family:Verics Regular 22;-inkscape-font-specification:Verics Regular 22"
         id="tspan3131-8"><tspan
   style="font-style:normal;font-variant:normal;font-weight:normal;font-stretch:normal;fill:#000000;font-family:Verics Regular 22;-inkscape-font-specification:'Verics Regular 22,'"
   id="tspan3135-1">             .filled := ⊥</tspan>;</tspan><tspan
         sodipodi:role="line"
         x="41.392544"
         y="674.37848"
         style="fill:#0000ff;font-family:Verics Regular 22;-inkscape-font-specification:Verics Regular 22"
         id="tspan3072-9">         }</tspan><tspan
         sodipodi:role="line"
         x="41.392544"
         y="724.37848"
         style="fill:#0000ff;font-family:Verics Regular 22;-inkscape-font-specification:Verics Regular 22"
         id="tspan3093-5"><tspan
   style="fill:#000000"
   id="tspan3098-7">         .split<tspan
   style="font-size:32px;font-style:italic;font-variant:normal;font-weight:bold;font-stretch:normal;baseline-shift:sub;font-family:Verics Italic 6;-inkscape-font-specification:Verics Italic 6 Bold Italic"
   id="tspan3089-9">i </tspan><tspan
   id="tspan3078-3"
   style="font-size:32px;font-style:normal;font-variant:normal;font-weight:500;font-stretch:normal;baseline-shift:sub;font-family:Verics Regular 22;-inkscape-font-specification:Verics Italic 6 Medium Italic">+ 1</tspan> :=</tspan> #<tspan
   style="fill:#000000"
   id="tspan3092-2">Split(</tspan><tspan
   style="fill:#000000;font-family:Verics Italic 6;-inkscape-font-specification:Verics Italic 6"
   id="tspan3088-8">i</tspan><tspan
   style="fill:#000000"
   id="tspan3094-2">, </tspan><tspan
   style="fill:#000000;font-family:Verics Italic 6;-inkscape-font-specification:Verics Italic 6"
   id="tspan3086-7">j<tspan
   style="font-family:Verics Regular 22;-inkscape-font-specification:Verics Regular 22"
   id="tspan3100-4">, enabled</tspan></tspan><tspan
   style="fill:#000000"
   id="tspan3096-7">)</tspan>;</tspan><tspan
         sodipodi:role="line"
         x="41.392544"
         y="774.37848"
         style="fill:#0000ff;font-family:Verics Regular 22;-inkscape-font-specification:Verics Regular 22"
         id="tspan3081-7">         if <tspan
   style="fill:#000000;font-family:Verics Italic 6;-inkscape-font-specification:Verics Italic 6"
   id="tspan3103-8">p<tspan
   style="font-size:32px;baseline-shift:sub"
   id="tspan3137-1">i</tspan></tspan><tspan
   style="fill:#000000"
   id="tspan3109-1"> ⊜ .points❪</tspan><tspan
   style="fill:#000000;font-family:Verics Italic 6;-inkscape-font-specification:Verics Italic 6"
   id="tspan3084-2">i</tspan><tspan
   style="fill:#000000"
   id="tspan3111-5"> + 1❫ </tspan>{</tspan><tspan
         sodipodi:role="line"
         x="41.392544"
         y="824.37848"
         style="fill:#0000ff;font-family:Verics Regular 22;-inkscape-font-specification:Verics Regular 22"
         id="tspan3101-6"><tspan
   style="fill:#000000;font-family:Verics Italic 6;-inkscape-font-specification:Verics Italic 6"
   id="tspan3105-0">             p<tspan
   style="font-size:32px;baseline-shift:sub"
   id="tspan3139-8">i</tspan></tspan><tspan
   style="fill:#000000"
   id="tspan3115-1"> := </tspan><tspan
   style="fill:#000000;font-family:Verics Italic 6;-inkscape-font-specification:Verics Italic 6"
   id="tspan3107-3">p<tspan
   style="font-size:32px;baseline-shift:sub"
   id="tspan3142-8">i</tspan></tspan><tspan
   style="fill:#000000"
   id="tspan3117-5"> ⊕ </tspan>#<tspan
   style="fill:#000000"
   id="tspan3119-1">Point(1, 0)</tspan>;</tspan><tspan
         sodipodi:role="line"
         x="41.392544"
         y="874.37848"
         style="fill:#0000ff;font-family:Verics Regular 22;-inkscape-font-specification:Verics Regular 22"
         id="tspan3097-9">         }</tspan><tspan
         sodipodi:role="line"
         x="41.392544"
         y="924.37848"
         style="fill:#0000ff;font-family:Verics Regular 22;-inkscape-font-specification:Verics Regular 22"
         id="tspan3053-6">     }</tspan><tspan
         sodipodi:role="line"
         x="41.392544"
         y="974.37848"
         id="tspan3001-97"
         style="fill:#0000ff;font-family:Verics Regular 22;-inkscape-font-specification:Verics Regular 22"> }</tspan></text>
    <text
       xml:space="preserve"
       style="font-size:40px;font-style:normal;font-variant:normal;font-weight:normal;font-stretch:normal;text-align:center;line-height:125%;letter-spacing:0px;word-spacing:0px;text-anchor:middle;fill:#000000;fill-opacity:1;stroke:none;font-family:Vesper LibreP28;-inkscape-font-specification:Vesper LibreP28"
       x="447.30661"
       y="474.68936"
       id="text3078-7"
       sodipodi:linespacing="125%"><tspan
         sodipodi:role="line"
         id="tspan3080-0"
         x="447.30661"
         y="474.68936"
         style="font-size:40px;font-style:italic;font-variant:normal;font-weight:bold;font-stretch:normal;font-family:Verics Italic 6;-inkscape-font-specification:Verics Italic 6 Bold Italic">i<tspan
   style="font-style:italic;font-variant:normal;font-weight:bold;font-stretch:normal;font-family:Verics Regular 22;-inkscape-font-specification:Verics Regular 22"
   id="tspan3051-3">·</tspan>j</tspan><tspan
         sodipodi:role="line"
         x="447.30661"
         y="524.68933"
         id="tspan3082-6"
         style="font-family:Verics Regular 22;-inkscape-font-specification:Verics Regular 22">1.5</tspan></text>
    <g
       style="font-size:40px;font-style:normal;font-variant:normal;font-weight:normal;font-stretch:normal;text-align:center;line-height:125%;letter-spacing:0px;word-spacing:0px;text-anchor:middle;fill:#000000;fill-opacity:1;stroke:none;font-family:DejaVu Sans;-inkscape-font-specification:DejaVu Sans"
       id="text3084-9"
       transform="translate(222.02244,146.60666)">
      <path
         d="m 198.77737,340.77802 56.52734,0 0,3.20312 -56.52734,0 0,-3.20312"
         id="path3089-8"
         inkscape:connector-curvature="0"
         sodipodi:nodetypes="ccccc" />
    </g>
    <text
       xml:space="preserve"
       style="font-size:40px;font-style:normal;font-variant:normal;font-weight:normal;font-stretch:normal;text-align:start;line-height:125%;letter-spacing:0px;word-spacing:0px;writing-mode:lr-tb;text-anchor:start;fill:#000000;fill-opacity:1;stroke:none;font-family:Vesper LibreP28;-inkscape-font-specification:Vesper LibreP28"
       x="16.673916"
       y="402.37735"
       id="text2985-5-3"
       sodipodi:linespacing="125%"><tspan
         sodipodi:role="line"
         id="tspan2987-4-1"
         x="16.673916"
         y="402.37735" /><tspan
         sodipodi:role="line"
         x="16.673916"
         y="452.37735"
         id="tspan2997-7-7" /><tspan
         sodipodi:role="line"
         x="16.673916"
         y="498.68921"
         id="tspan3001-9-7"
         style="fill:#0000ff"><tspan
           id="tspan3208-8"
           style="fill:#000000"><tspan
             style="font-family:Verics Regular 22;-inkscape-font-specification:Verics Regular 22"
             id="tspan3048-1">           ℝ</tspan><tspan
             id="tspan3141-6"
             style="fill:#0000ff;font-family:Verics Regular 22;-inkscape-font-specification:Verics Regular 22">«<tspan
   style="fill:#000000;font-family:Verics Regular 22;-inkscape-font-specification:Verics Regular 22"
   id="tspan3058-7">0, 2</tspan>» </tspan><tspan
             style="font-size:40px;font-style:italic;font-variant:normal;font-weight:500;font-stretch:normal;font-family:Verics Italic 6;-inkscape-font-specification:Verics Italic 6 Medium Italic"
             id="tspan3227-0">v</tspan><tspan
             style="font-family:Verics Regular 22;-inkscape-font-specification:Verics Regular 22"
             id="tspan3050-7">  :=      </tspan></tspan><tspan
           style="font-family:Verics Regular 22;-inkscape-font-specification:Verics Regular 22"
           id="tspan3052-1">;        </tspan></tspan></text>
    <flowRoot
       xml:space="preserve"
       id="flowRoot3413"
       style="fill:black;stroke:none;stroke-opacity:1;stroke-width:1px;stroke-linejoin:miter;stroke-linecap:butt;fill-opacity:1;font-family:DejaVu Sans;font-style:normal;font-weight:normal;font-size:40px;line-height:125%;letter-spacing:0px;word-spacing:0px;-inkscape-font-specification:DejaVu Sans;font-stretch:normal;font-variant:normal;text-anchor:middle;text-align:center"><flowRegion
         id="flowRegion3415"><rect
           id="rect3417"
           width="1034.2858"
           height="1142.8572"
           x="-38.57143"
           y="-134.59286" /></flowRegion><flowPara
         id="flowPara3419"></flowPara></flowRoot>  </g>
</svg>
